<?xml version="1.0" encoding="UTF-8"?>
<svg width="420px" height="296px" viewBox="0 0 420 296" version="1.1" xmlns="http://www.w3.org/2000/svg" xmlns:xlink="http://www.w3.org/1999/xlink">
    <!-- Generator: sketchtool 59 (101010) - https://sketch.com -->
    <title>A5A053F3-E7C0-49AC-BAFE-A45CD17775DE@1,5x</title>
    <desc>Created with sketchtool.</desc>
    <g id="Page-1" stroke="none" stroke-width="1" fill="none" fill-rule="evenodd" opacity="0.200000003">
        <g id="home" transform="translate(-259.000000, -4308.000000)" fill="#000000" fill-rule="nonzero">
            <g id="Group-26" transform="translate(0.000000, 4308.000000)">
                <g id="Combined-Shape">
                    <g id="Group-10" transform="translate(120.000000, -589.000000)">
                        <path d="M137.230398,0 L279.5,0 C433.863587,0 559,125.180504 559,279.598482 L559,830.088499 C559,860.415284 534.423943,885 504.107841,885 C490.992279,885 478.31018,880.30228 468.357613,871.757357 L90.9241755,547.706153 C33.2092875,498.154162 0,425.862977 0,349.779103 L0,137.278752 C0,61.4617906 61.4401421,0 137.230398,0 Z" id="Rectangle"></path>
                    </g>
                </g>
            </g>
        </g>
    </g>
</svg>