<?xml version="1.0" encoding="UTF-8"?>
<svg width="318px" height="503px" viewBox="0 0 318 503" version="1.1" xmlns="http://www.w3.org/2000/svg" xmlns:xlink="http://www.w3.org/1999/xlink">
    <!-- Generator: sketchtool 59 (101010) - https://sketch.com -->
    <title>73E05B24-A071-4987-BF5A-05B5B2EA2F10@1,5x</title>
    <desc>Created with sketchtool.</desc>
    <g id="Page-1" stroke="none" stroke-width="1" fill="none" fill-rule="evenodd">
        <g id="contato" transform="translate(-637.000000, -346.000000)" fill="#018CFF" fill-rule="nonzero">
            <g id="Group-2" transform="translate(637.000000, -168.000000)">
                <path d="M78.0666666,514 L159,514 C246.813275,514 318,585.14779 318,672.913034 L318,985.790413 C318,1003.02699 304.019345,1017 286.773333,1017 C279.312244,1017 272.097741,1014.33 266.435994,1009.47339 L51.7243073,825.295135 C18.8918666,797.131685 0,756.044154 0,712.801005 L0,592.023968 C0,548.93252 34.9516372,514 78.0666666,514 Z" id="Rectangle-Copy-3"></path>
            </g>
        </g>
    </g>
</svg>