<?xml version="1.0" encoding="UTF-8"?>
<svg width="16px" height="16px" viewBox="0 0 16 16" version="1.1" xmlns="http://www.w3.org/2000/svg" xmlns:xlink="http://www.w3.org/1999/xlink">
    <!-- Generator: sketchtool 59 (101010) - https://sketch.com -->
    <title>473C236E-9409-43A2-84F5-7FD71AFC727E@1,5x</title>
    <desc>Created with sketchtool.</desc>
    <g id="Page-1" stroke="none" stroke-width="1" fill="none" fill-rule="evenodd" opacity="0.5">
        <g id="home" transform="translate(-1104.000000, -5496.000000)" fill="#000000" fill-rule="nonzero">
            <g id="Group-28" transform="translate(0.000000, 5406.000000)">
                <g id="Group-27" transform="translate(1104.000000, 55.000000)">
                    <g id="iconfinder_Instagram_Solid_1435170-(1)" transform="translate(0.000000, 35.000000)">
                        <path d="M15.5507692,2.75076923 C15.3476923,2.22769231 15.0769231,1.78461538 14.6338462,1.34153846 C14.1907692,0.898461538 13.7476923,0.627692308 13.2246154,0.424615385 C12.72,0.227692308 12.1353846,0.0923076923 11.2923077,0.0553846154 C10.4430769,0.0184615385 10.1723077,0.00615384615 8.00615385,0.00615384615 C5.84,0.00615384615 5.56923077,0.0123076923 4.72,0.0553846154 C3.87076923,0.0923076923 3.29230769,0.227692308 2.78769231,0.424615385 C2.26461538,0.627692308 1.82153846,0.898461538 1.37846154,1.34153846 C0.935384615,1.78461538 0.664615385,2.22769231 0.461538462,2.75076923 C0.264615385,3.25538462 0.129230769,3.84 0.0923076923,4.68307692 C0.0553846154,5.53230769 0.0430769231,5.80307692 0.0430769231,7.96923077 C0.0430769231,10.1353846 0.0492307692,10.4061538 0.0923076923,11.2553846 C0.129230769,12.1046154 0.264615385,12.6830769 0.461538462,13.1876923 C0.664615385,13.7107692 0.935384615,14.1538462 1.37846154,14.5969231 C1.82153846,15.04 2.26461538,15.3107692 2.78769231,15.5138462 C3.29230769,15.7107692 3.87692308,15.8461538 4.72,15.8830769 C5.56923077,15.92 5.84,15.9323077 8.00615385,15.9323077 C10.1723077,15.9323077 10.4430769,15.9261538 11.2923077,15.8830769 C12.1415385,15.8461538 12.72,15.7107692 13.2246154,15.5138462 C13.7476923,15.3107692 14.1907692,15.04 14.6338462,14.5969231 C15.0769231,14.1538462 15.3476923,13.7107692 15.5507692,13.1876923 C15.7476923,12.6830769 15.8830769,12.0984615 15.92,11.2553846 C15.9569231,10.4061538 15.9692308,10.1353846 15.9692308,7.96923077 C15.9692308,5.80307692 15.9630769,5.53230769 15.92,4.68307692 C15.8830769,3.83384615 15.7476923,3.25538462 15.5507692,2.75076923 Z M14.4861538,11.1876923 C14.4492308,11.9630769 14.32,12.3876923 14.2092308,12.6646154 C14.0676923,13.0338462 13.8892308,13.3046154 13.6123077,13.5815385 C13.3353846,13.8584615 13.0707692,14.0307692 12.6953846,14.1784615 C12.4123077,14.2892308 11.9938462,14.4184615 11.2184615,14.4553846 C10.3753846,14.4923077 10.1292308,14.5046154 8,14.5046154 C5.87076923,14.5046154 5.61846154,14.4984615 4.78153846,14.4553846 C4.00615385,14.4184615 3.58153846,14.2892308 3.30461538,14.1784615 C2.93538462,14.0369231 2.66461538,13.8584615 2.38769231,13.5815385 C2.11076923,13.3046154 1.93846154,13.04 1.79076923,12.6646154 C1.68,12.3815385 1.55076923,11.9630769 1.51384615,11.1876923 C1.47692308,10.3446154 1.46461538,10.0923077 1.46461538,7.96923077 C1.46461538,5.84615385 1.47076923,5.58769231 1.51384615,4.75076923 C1.55076923,3.97538462 1.68,3.55076923 1.79076923,3.27384615 C1.93230769,2.90461538 2.11076923,2.63384615 2.38769231,2.35692308 C2.66461538,2.08 2.92923077,1.90769231 3.30461538,1.76 C3.58769231,1.64923077 4.00615385,1.52 4.78153846,1.48307692 C5.62461538,1.44615385 5.87692308,1.43384615 8,1.43384615 C10.1230769,1.43384615 10.3815385,1.44 11.2184615,1.48307692 C11.9938462,1.52 12.4184615,1.64923077 12.6953846,1.76 C13.0646154,1.90153846 13.3353846,2.08 13.6123077,2.35692308 C13.8892308,2.63384615 14.0615385,2.89846154 14.2092308,3.27384615 C14.32,3.55692308 14.4492308,3.97538462 14.4861538,4.75076923 C14.5230769,5.59384615 14.5353846,5.84615385 14.5353846,7.96923077 C14.5353846,10.0923077 14.5230769,10.3507692 14.4861538,11.1876923 Z" id="XMLID_142_"></path>
                        <path d="M8,3.87692308 C5.74153846,3.87692308 3.90769231,5.71076923 3.90769231,7.96923077 C3.90769231,10.2276923 5.74153846,12.0615385 8,12.0615385 C10.2584615,12.0615385 12.0923077,10.2276923 12.0923077,7.96923077 C12.0923077,5.71076923 10.2584615,3.87692308 8,3.87692308 Z M8,10.6276923 C6.53538462,10.6276923 5.34153846,9.44 5.34153846,7.96923077 C5.34153846,6.50461538 6.52923077,5.31076923 8,5.31076923 C9.47076923,5.31076923 10.6584615,6.49846154 10.6584615,7.96923077 C10.6584615,9.43384615 9.46461538,10.6276923 8,10.6276923 Z" id="XMLID_145_"></path>
                        <circle id="XMLID_143_" cx="12.2523077" cy="3.71692308" r="1"></circle>
                    </g>
                </g>
            </g>
        </g>
    </g>
</svg>