<?xml version="1.0" encoding="UTF-8"?>
<svg width="17px" height="13px" viewBox="0 0 17 13" version="1.1" xmlns="http://www.w3.org/2000/svg" xmlns:xlink="http://www.w3.org/1999/xlink">
    <!-- Generator: sketchtool 59 (101010) - https://sketch.com -->
    <title>DBACAA01-BEBC-44A5-A3CC-FFFA1476E387@1,5x</title>
    <desc>Created with sketchtool.</desc>
    <g id="Page-1" stroke="none" stroke-width="1" fill="none" fill-rule="evenodd" stroke-linecap="round" stroke-linejoin="round">
        <g id="A-ATR" transform="translate(-347.000000, -542.000000)" stroke="#000000">
            <g id="Group-2" transform="translate(348.000000, 539.000000)">
                <g id="icon_visao_inactive" transform="translate(0.000000, 4.000000)">
                    <path d="M0,5.45454545 C0,5.45454545 2.72727273,0 7.5,0 C12.2727273,0 15,5.45454545 15,5.45454545 C15,5.45454545 12.2727273,10.9090909 7.5,10.9090909 C2.72727273,10.9090909 0,5.45454545 0,5.45454545 Z" id="Path"></path>
                    <circle id="Oval" cx="7.5" cy="5.45454545" r="2.04545455"></circle>
                </g>
            </g>
        </g>
    </g>
</svg>