<?xml version="1.0" encoding="UTF-8"?>
<svg width="22px" height="18px" viewBox="0 0 22 18" version="1.1" xmlns="http://www.w3.org/2000/svg" xmlns:xlink="http://www.w3.org/1999/xlink">
    <!-- Generator: sketchtool 59 (101010) - https://sketch.com -->
    <title>2D508113-8DB7-4822-8FF2-16D59915E0F1@1,5x</title>
    <desc>Created with sketchtool.</desc>
    <g id="Page-1" stroke="none" stroke-width="1" fill="none" fill-rule="evenodd">
        <g id="A-ATR" transform="translate(-255.000000, -1314.000000)">
            <g id="icon_playground" transform="translate(255.000000, 1314.000000)">
                <path d="M0.352941176,18 L1.76470588,18 C1.95962991,18 2.11764706,17.8419829 2.11764706,17.6470588 L2.11764706,6.8385 L4.39544118,4.23529412 L5.64705882,4.23529412 L5.64705882,12.4136471 C5.16109552,12.5856943 4.86967148,13.0827323 4.9568531,13.5908267 C5.04403471,14.0989211 5.48448032,14.4703809 6,14.4705882 L8.82352941,14.4705882 C9.33904909,14.4703809 9.7794947,14.0989211 9.86667632,13.5908267 C9.95385793,13.0827323 9.66243389,12.5856943 9.17647059,12.4136471 L9.17647059,4.23529412 L12,4.23529412 L12,14.5312941 C11.5140367,14.7033414 11.2226127,15.2003793 11.3097943,15.7084738 C11.3969759,16.2165682 11.8374215,16.588028 12.3529412,16.5882353 L15.1764706,16.5882353 C15.6919903,16.588028 16.1324359,16.2165682 16.2196175,15.7084738 C16.3067991,15.2003793 16.0153751,14.7033414 15.5294118,14.5312941 L15.5294118,4.23529412 L16.7810294,4.23529412 L19.0588235,6.8385 L19.0588235,17.6470588 C19.0588235,17.8419829 19.2168407,18 19.4117647,18 L20.8235294,18 C21.0184534,18 21.1764706,17.8419829 21.1764706,17.6470588 L21.1764706,1.76470588 C21.1753765,0.790539283 20.3859313,0.00109409218 19.4117647,0 L1.76470588,0 C0.790539283,0.00109409218 0.00109409218,0.790539283 -5.38236122e-13,1.76470588 L-5.38236122e-13,17.6470588 C-5.38236122e-13,17.8419829 0.158017147,18 0.352941176,18 Z M1.41176471,17.2941176 L0.705882353,17.2941176 L0.705882353,16.5882353 L1.41176471,16.5882353 L1.41176471,17.2941176 Z M2.11764706,5.76652941 L2.11764706,4.23529412 L3.4575,4.23529412 L2.11764706,5.76652941 Z M8.82352941,13.7647059 L6,13.7647059 C5.80507597,13.7647059 5.64705882,13.6066887 5.64705882,13.4117647 C5.64705882,13.2168407 5.80507597,13.0588235 6,13.0588235 L8.82352941,13.0588235 C9.01845344,13.0588235 9.17647059,13.2168407 9.17647059,13.4117647 C9.17647059,13.6066887 9.01845344,13.7647059 8.82352941,13.7647059 Z M8.47058824,12.3529412 L6.35294118,12.3529412 L6.35294118,4.23529412 L8.47058824,4.23529412 L8.47058824,12.3529412 Z M15.1764706,15.8823529 L12.3529412,15.8823529 C12.1580171,15.8823529 12,15.7243358 12,15.5294118 C12,15.3344877 12.1580171,15.1764706 12.3529412,15.1764706 L15.1764706,15.1764706 C15.3713946,15.1764706 15.5294118,15.3344877 15.5294118,15.5294118 C15.5294118,15.7243358 15.3713946,15.8823529 15.1764706,15.8823529 Z M14.8235294,14.4705882 L12.7058824,14.4705882 L12.7058824,4.23529412 L14.8235294,4.23529412 L14.8235294,14.4705882 Z M15.1764706,2.82352941 C14.9815466,2.82352941 14.8235294,2.98154656 14.8235294,3.17647059 L14.8235294,3.52941176 L12.7058824,3.52941176 L12.7058824,3.17647059 C12.7058824,2.98154656 12.5478652,2.82352941 12.3529412,2.82352941 C12.1580171,2.82352941 12,2.98154656 12,3.17647059 L12,3.52941176 L9.17647059,3.52941176 L9.17647059,3.17647059 C9.17647059,2.98154656 9.01845344,2.82352941 8.82352941,2.82352941 C8.62860538,2.82352941 8.47058824,2.98154656 8.47058824,3.17647059 L8.47058824,3.52941176 L6.35294118,3.52941176 L6.35294118,3.17647059 C6.35294118,2.98154656 6.19492403,2.82352941 6,2.82352941 C5.80507597,2.82352941 5.64705882,2.98154656 5.64705882,3.17647059 L5.64705882,3.52941176 L2.11764706,3.52941176 L2.11764706,2.11764706 L19.0588235,2.11764706 L19.0588235,3.52941176 L15.5294118,3.52941176 L15.5294118,3.17647059 C15.5294118,2.98154656 15.3713946,2.82352941 15.1764706,2.82352941 Z M17.7189706,4.23529412 L19.0588235,4.23529412 L19.0588235,5.76652941 L17.7189706,4.23529412 Z M20.4705882,17.2941176 L19.7647059,17.2941176 L19.7647059,16.5882353 L20.4705882,16.5882353 L20.4705882,17.2941176 Z M0.705882353,1.76470588 C0.706563067,1.18021599 1.18021599,0.706563067 1.76470588,0.705882353 L19.4117647,0.705882353 C19.9962546,0.706563067 20.4699075,1.18021599 20.4705882,1.76470588 L20.4705882,15.8823529 L19.7647059,15.8823529 L19.7647059,1.76470588 C19.7647059,1.56978185 19.6066887,1.41176471 19.4117647,1.41176471 L1.76470588,1.41176471 C1.56978185,1.41176471 1.41176471,1.56978185 1.41176471,1.76470588 L1.41176471,15.8823529 L0.705882353,15.8823529 L0.705882353,1.76470588 Z" id="Shape" fill="#018CFF" fill-rule="nonzero"></path>
                <path d="M10.3529412,8 C10.1580171,8 10,8.15801715 10,8.35294118 L10,8.70588235 C10,8.90080638 10.1580171,9.05882353 10.3529412,9.05882353 C10.5478652,9.05882353 10.7058824,8.90080638 10.7058824,8.70588235 L10.7058824,8.35294118 C10.7058824,8.15801715 10.5478652,8 10.3529412,8 Z" id="Path" fill="#018CFF" fill-rule="nonzero"></path>
                <path d="M10.7058824,8.35294118 C10.7058824,8.15801715 10.5478652,8 10.3529412,8 C10.1580171,8 10,8.15801715 10,8.35294118 L10,10.1176471 C10,10.3125711 10.1580171,10.4705882 10.3529412,10.4705882 C10.5478652,10.4705882 10.7058824,10.3125711 10.7058824,10.1176471 L10.7058824,8.35294118 Z" id="Path" fill="#018CFF" fill-rule="nonzero"></path>
                <path d="M10,8.70588235 C10,8.90080638 10.1580171,9.05882353 10.3529412,9.05882353 C10.5478652,9.05882353 10.7058824,8.90080638 10.7058824,8.70588235 L10.7058824,8.35294118 C10.7058824,8.15801715 10.5478652,8 10.3529412,8 C10.1580171,8 10,8.15801715 10,8.35294118 L10,8.70588235 Z" id="Path" fill="#018CFF" fill-rule="nonzero"></path>
                <path d="M10.3529412,10.4705882 C10.5478652,10.4705882 10.7058824,10.3125711 10.7058824,10.1176471 L10.7058824,8.35294118 C10.7058824,8.15801715 10.5478652,8 10.3529412,8 C10.1580171,8 10,8.15801715 10,8.35294118 L10,10.1176471 C10,10.3125711 10.1580171,10.4705882 10.3529412,10.4705882 Z" id="Path" fill="#018CFF" fill-rule="nonzero"></path>
                <g id="swing"></g>
            </g>
        </g>
    </g>
</svg>