<?xml version="1.0" encoding="UTF-8"?>
<svg width="22px" height="22px" viewBox="0 0 22 22" version="1.1" xmlns="http://www.w3.org/2000/svg" xmlns:xlink="http://www.w3.org/1999/xlink">
    <!-- Generator: sketchtool 59 (101010) - https://sketch.com -->
    <title>03F6AD3A-006B-47D1-A030-0B01CD933060@1,5x</title>
    <desc>Created with sketchtool.</desc>
    <g id="Page-1" stroke="none" stroke-width="1" fill="none" fill-rule="evenodd" stroke-linecap="round" stroke-linejoin="round">
        <g id="home" transform="translate(-404.000000, -2979.000000)" stroke="#018CFF">
            <g id="Group-18" transform="translate(0.000000, 2567.000000)">
                <g id="icon_play_circle" transform="translate(405.000000, 413.000000)">
                    <circle id="Oval" cx="10" cy="10" r="10"></circle>
                    <polygon id="Path" points="8 6 14 10 8 14"></polygon>
                </g>
            </g>
        </g>
    </g>
</svg>