<?xml version="1.0" encoding="UTF-8"?>
<svg width="11px" height="16px" viewBox="0 0 11 16" version="1.1" xmlns="http://www.w3.org/2000/svg" xmlns:xlink="http://www.w3.org/1999/xlink">
    <!-- Generator: sketchtool 59 (101010) - https://sketch.com -->
    <title>68349E63-4CC0-4D50-AF1E-23E454D3A2FF@1,5x</title>
    <desc>Created with sketchtool.</desc>
    <g id="Page-1" stroke="none" stroke-width="1" fill="none" fill-rule="evenodd" stroke-linecap="round" stroke-linejoin="round">
        <g id="A-ATR" transform="translate(-350.000000, -577.000000)" stroke="#FFFFFF">
            <g id="Group-4" transform="translate(351.000000, 576.000000)">
                <g id="icon_valores_active" transform="translate(0.000000, 2.000000)">
                    <circle id="Oval" cx="4.5" cy="4.5" r="4.5"></circle>
                    <polyline id="Path" points="2.06357143 8.28642857 1.28571429 14.1428571 4.5 12.2142857 7.71428571 14.1428571 6.93642857 8.28"></polyline>
                </g>
            </g>
        </g>
    </g>
</svg>