<?xml version="1.0" encoding="UTF-8"?>
<svg width="30px" height="16px" viewBox="0 0 30 16" version="1.1" xmlns="http://www.w3.org/2000/svg" xmlns:xlink="http://www.w3.org/1999/xlink">
    <!-- Generator: sketchtool 59 (101010) - https://sketch.com -->
    <title>01B2D153-41C9-4D25-B256-513A44B41E5E@1,5x</title>
    <desc>Created with sketchtool.</desc>
    <g id="Page-1" stroke="none" stroke-width="1" fill="none" fill-rule="evenodd">
        <g id="home" transform="translate(-919.000000, -799.000000)" fill="#ffffff" fill-rule="nonzero">
            <g id="destaque" transform="translate(255.000000, 505.000000)">
                <g id="Group-43" transform="translate(664.000000, 294.000000)">
                    <g id="iconfinder_Measuring_tape_3605315">
                        <path d="M17.5500061,8.14789015 C17.4258573,7.75692068 17.3629955,7.3477877 17.3629955,6.93203801 C17.3629955,4.77538111 19.0666245,3.02085126 21.1607143,3.02085126 C23.2548041,3.02085126 24.958433,4.77538111 24.958433,6.93203801 C24.958433,9.08875978 23.2548041,10.8432896 21.1607143,10.8432896 C19.7342943,10.8432896 18.4407784,10.0320296 17.7850133,8.72600861 L17.1136271,9.08363508 C17.8997769,10.6491996 19.4505976,11.6217256 21.1607143,11.6217256 C23.6715939,11.6217256 25.7142857,9.51793749 25.7142857,6.93203801 C25.7142857,4.3462034 23.6715939,2.24241527 21.1607143,2.24241527 C18.6498977,2.24241527 16.6071429,4.3462034 16.6071429,6.93203801 C16.6071429,7.4301073 16.6825392,7.92045711 16.8315051,8.38972427 L17.5500061,8.14789015 Z" id="Path"></path>
                        <path d="M21.1607457,10.5182773 C23.0808283,10.5182773 24.6428571,8.90955272 24.6428571,6.93207045 C24.6428571,4.95465282 23.0808283,3.34586355 21.1607457,3.34586355 C19.240663,3.34586355 17.6785714,4.95465282 17.6785714,6.93207045 C17.6785714,8.90955272 19.240663,10.5182773 21.1607457,10.5182773 Z M21.1607457,4.12171567 C22.6031303,4.12171567 23.7868925,5.28041891 23.8825576,6.74135602 L22.8507674,6.74135602 L22.8507674,7.5171435 L23.8296405,7.5171435 C23.5675029,8.7869783 22.4706177,9.74255452 21.1606829,9.74255452 C19.8507481,9.74255452 18.7538629,8.7869783 18.4917253,7.5171435 L22.1967416,7.5171435 L22.1967416,6.74135602 L18.4388082,6.74135602 C18.5345989,5.28041891 19.7183611,4.12171567 21.1607457,4.12171567 Z" id="Shape"></path>
                        <path d="M1.3869226,14.714017 L2.59132479,14.714017 L2.59132479,15.4837946 L3.36635838,15.4837946 L3.36635838,14.714017 L3.36635838,14.1562711 L11.3996461,14.1562711 L11.3996461,15.4609789 L12.9156763,15.4609789 L13.6907099,15.4609789 L22.5549628,15.4609789 C26.6601865,15.4609789 30,12.0010945 30,7.74828228 C30,3.49547005 26.6601219,0.0355187213 22.5549628,0.0355187213 L17.9992508,0.0355187213 L17.3046915,0.758661394 L17.2496642,0.70265932 C16.7419526,0.185526667 15.9199649,0.189741877 15.417291,0.712227178 L13.8819495,2.3079852 C13.635618,2.56397557 13.5009559,2.90406941 13.5026351,3.26557384 C13.5043789,3.62701136 13.6423995,3.96570013 13.8911853,4.21914798 L13.9365247,4.26531457 L12.9156118,5.32821654 L12.9156118,11.0701353 L11.3995815,12.0370242 L11.3995815,13.3535078 L3.36635838,13.3535078 L3.36635838,13.2013588 L10.4800687,13.2013588 L10.4800687,12.3984617 L3.36635838,12.3984617 L3.36635838,11.8406489 L1.3869226,11.8406489 C0.62215821,11.8406489 0,12.4851746 0,13.2775002 C0,14.0695582 0.62215821,14.714017 1.3869226,14.714017 Z M14.4829234,3.69579288 L14.434613,3.64654852 C14.334117,3.54424605 14.2784437,3.4074859 14.2776618,3.26142554 C14.2769583,3.11543208 14.3313398,2.97813667 14.430867,2.87476366 L15.9662731,1.27900564 C16.0684484,1.17275558 16.2032396,1.11956365 16.3381601,1.11956365 C16.4712721,1.11956365 16.6044487,1.17135051 16.7062364,1.27512497 L16.7579699,1.32778164 L16.1094606,2.00301811 L14.4829234,3.69579288 Z M13.6906453,5.65947851 L16.7173453,2.50837494 L17.8574197,1.32175991 L17.8572905,1.32155918 L18.3214064,0.838348934 L21.260463,0.838348934 C23.3782422,0.838348934 25.3031673,2.04764581 26.2840369,3.99426988 L26.9711042,3.62272924 C26.5185491,2.7246219 25.8892219,1.96467978 25.1402165,1.37863179 C27.5378475,2.42694779 29.2249664,4.8872253 29.2249664,7.74821537 C29.2249664,11.5582967 26.2328201,14.6580149 22.5549628,14.6580149 L15.46192,14.6580149 L15.46192,13.3742493 L21.7152785,13.3742493 C25.0143381,13.3742493 27.698344,10.5937497 27.698344,7.17601735 L27.698344,6.70478365 C27.698344,5.86682669 27.5501834,5.04954433 27.2578666,4.27561841 L26.5361812,4.5681406 C26.7931048,5.24846209 26.9233104,5.96725574 26.9233104,6.70478365 L26.9233104,7.17601735 C26.9233104,10.1510188 24.5869717,12.5713522 21.7152785,12.5713522 L14.6868864,12.5713522 L14.6868864,14.6580149 L13.6906453,14.6580149 L13.6906453,10.5756176 L13.6906453,5.65947851 L13.6906453,5.65947851 Z M12.1746151,12.4855091 L12.9156118,12.0129372 L12.9156118,14.6581487 L12.1746151,14.6581487 L12.1746151,12.4855091 Z M1.3869226,12.6434122 L2.59132479,12.6434122 L2.59132479,12.8759178 L1.7888421,12.8759178 L1.7888421,13.6788149 L2.59132479,13.6788149 L2.59132479,13.690457 L2.59132479,13.9111868 L1.3869226,13.9111868 C1.04952465,13.9111868 0.775033585,13.6268274 0.775033585,13.2773664 C0.775033585,12.9277716 1.04952465,12.6434122 1.3869226,12.6434122 Z" id="Shape"></path>
                        <rect id="Rectangle" x="15" y="11.6217256" width="2.14285714" height="1"></rect>
                    </g>
                </g>
            </g>
        </g>
    </g>
</svg>