<?xml version="1.0" encoding="UTF-8"?>
<svg width="27px" height="27px" viewBox="0 0 27 27" version="1.1" xmlns="http://www.w3.org/2000/svg" xmlns:xlink="http://www.w3.org/1999/xlink">
    <!-- Generator: sketchtool 59 (101010) - https://sketch.com -->
    <title>6E5124F0-A1C2-4F16-B544-3A59F444B24B@1,5x</title>
    <desc>Created with sketchtool.</desc>
    <g id="Page-1" stroke="none" stroke-width="1" fill="none" fill-rule="evenodd" stroke-linecap="round" stroke-linejoin="round">
        <g id="home" transform="translate(-1294.000000, -1062.000000)" stroke="#018CFF" stroke-width="2">
            <g id="Group-13" transform="translate(120.000000, 1045.000000)">
                <g id="Group-12" transform="translate(1093.000000, 18.000000)">
                    <g id="icon_arrow_right_azul" transform="translate(94.500000, 12.500000) rotate(-270.000000) translate(-94.500000, -12.500000) translate(82.000000, 0.000000)">
                        <line x1="12.5" y1="25" x2="12.5" y2="0" id="Path"></line>
                        <polyline id="Path" points="0 12.5 12.5 0 25 12.5"></polyline>
                    </g>
                </g>
            </g>
        </g>
    </g>
</svg>