<?xml version="1.0" encoding="UTF-8"?>
<svg width="318px" height="503px" viewBox="0 0 318 503" version="1.1" xmlns="http://www.w3.org/2000/svg" xmlns:xlink="http://www.w3.org/1999/xlink">
    <!-- Generator: sketchtool 59 (101010) - https://sketch.com -->
    <title>0B686E5C-6A09-4474-AD0C-10802039DAE4@1,5x</title>
    <desc>Created with sketchtool.</desc>
    <g id="Page-1" stroke="none" stroke-width="1" fill="none" fill-rule="evenodd">
        <g id="contato" transform="translate(-1003.000000, -23.000000)" fill="#105EAA" fill-rule="nonzero">
            <g id="Group-2" transform="translate(637.000000, -168.000000)">
                <path d="M605.933333,191 L525,191 C437.186724,191 366,262.147789 366,349.913035 L366,662.790413 C366,680.026992 379.980655,694 397.226665,694 C404.687754,694 411.902258,691.329996 417.564004,686.473391 L632.275692,502.295137 C665.108136,474.131687 684,433.044156 684,389.801004 L684,269.023968 C684,225.932521 649.048363,191 605.933333,191 Z" id="Rectangle-Copy"></path>
            </g>
        </g>
    </g>
</svg>